{
    "db": {
        "url": "mongodb://127.0.0.1:27017/lootApis",
        "database": "lootApis"

    },

    "app": {
        "url": "http://54.169.132.194",
        "port": 8300
    },
    "webServer": {
        "url": "http://54.169.132.194",
        "port": 8300
    },
    "auth": {
        "jwtKey": "supersecret"
    },
    "providers": {
        "file-store": {
            "dir": "public/files",
            "root": "http://54.169.132.194:8300/files"
        }
    },
    "logger": {
        "logStart": false,
        "file": {
            "filename": "logs/logs.json",
            "level": "silly",
            "handleExceptions": true,
            "json": true,
            "maxsize": 512000,
            "maxFiles": 5,
            "colorize": false
        },
        "console": {
            "level": "debug",
            "handleExceptions": true,
            "json": false,
            "colorize": true
        },
        "http": {}
    }
}